UserId,Energy kcal actual value,Total Fat (g) actual value,"Carbohydrates, total (g) actual value",Sodium (mg) actual value,Fibers (g) actual value,Protein (g) actual value,Saturated fatty acids (g) actual value,Vitamin B12 (Cobalamin) actual value,Sugar (g) actual value,actual_kcal,sodium_actual_quantity,totalFat_actual_quantity,saturatedFat_actual_quantity,totalCarbohydrate_actual_quantity,sugars_actual_quantity,protein_actual_quantity,fiber_actual_quantity
29,1843.6,93.6,193.0,1874.3,16.8,95.7,42.7,6.3,76.8,4965.166035000002,5.850408037170924,183.955435,67.94757857142856,632.158067857143,199.6489821428572,195.23371214285717,48.16547285714286
33,2135.8,100.3,308.3,2274.6,29.5,112.3,47.9,10.2,119.4,2119.3770857142845,3.134688261726905,86.56662857142854,35.01369999999998,245.8118571428572,88.60596071428583,89.25750000000004,31.276957142857125
34,1497.8,59.7,211.0,1967.3,25.0,69.3,27.8,5.4,85.7,2376.7959642857145,3.860497933069618,91.50239285714288,40.57648571428573,306.9736428571429,109.93303571428571,81.34496428571425,19.16675
35,1360.5,79.2,194.6,1921.1,12.3,65.3,35.3,3.6,73.0,1676.6633214285714,2.9534033604644785,90.57946428571431,40.7622142857143,146.63375,38.86982142857143,68.7282857142857,7.643464285714286
39,1287.2,63.2,216.4,1577.6,17.9,91.3,29.2,4.9,76.7,1121.6349214285717,0.8935170388866983,42.95103571428571,22.054296428571416,146.70505714285716,61.33719999999999,37.06384285714285,14.076867857142856
41,2332.5,73.4,375.9,1664.8,50.9,102.1,28.8,7.2,130.5,1245.8928214285713,0.9747451157963447,33.10196428571428,11.74882142857143,182.1265714285714,83.66592857142857,54.86721428571427,29.203928571428573
43,1260.0,54.7,153.1,1194.8,26.7,69.5,16.9,2.6,68.1,2352.279378571429,1.7002332377758242,93.39692142857142,37.76768571428571,288.35602857142857,112.16688571428574,89.57074285714286,20.264621428571427
44,5033.6,281.5,516.9,6849.3,48.2,239.5,137.9,17.9,155.3,1164.9015714285713,1.1401565353149725,41.71557142857142,22.79785714285714,155.1667857142857,47.153214285714284,42.19857142857143,5.773392857142857
71,2245.2,92.2,345.8,2504.5,35.4,96.9,43.7,6.1,108.2,1323.8609285714288,1.187091324514663,50.27764285714285,21.683285714285716,172.02807142857142,80.09183928571429,45.81246428571428,23.22367857142857
72,8863.2,413.6,949.9,11767.9,71.1,499.0,205.7,23.7,385.4,4594.07515,3.90366546205544,216.2155842857143,97.89884500000001,509.97505142857136,250.55612285714292,152.05867142857147,38.5465257142857
73,1403.5,59.0,193.6,1954.4,16.5,84.4,28.2,6.3,61.3,1370.687892857143,1.5629678230680941,76.38662142857143,39.958464285714285,120.48762857142857,59.87156785714286,50.31444642857143,11.081285714285713
75,1329.7,78.8,131.5,677.9,16.3,42.6,42.9,4.2,66.0,1982.418107142857,1.1597796140328103,127.06910714285718,65.56293928571428,166.15785714285715,102.88160714285716,43.541178571428574,29.746821428571423
76,2094.1,95.6,267.2,2381.6,21.7,138.8,40.5,6.8,70.2,2062.1222678571435,2.379108543349219,112.7535535714286,49.49541071428573,185.08614285714296,99.91344642857145,76.74892857142855,16.463607142857136
82,1780.4,84.6,215.7,2110.1,19.4,72.9,40.9,4.3,74.0,2431.124607142857,1.879661983661221,78.14440714285716,28.774849999999986,340.18338571428575,157.48710000000005,91.77284999999999,37.716746428571426
89,1435.8,48.9,206.3,1214.4,10.3,61.9,22.2,5.2,119.7,3912.491188571431,3.9702294747202163,177.4984542857144,79.62091928571428,432.4645907142855,240.2066550000001,146.28668428571436,38.948418571428576
92,844.2,33.5,158.4,777.4,17.2,38.2,16.8,1.3,41.6,482.97606428571436,0.319473628705018,12.521578571428572,5.536267857142858,79.73278571428571,29.54775,12.837678571428569,8.881892857142857
97,1521.6,69.3,174.0,1273.2,12.9,63.3,32.3,3.6,67.7,8160.479339285703,7.647446054137148,352.7532678571429,159.61326428571448,910.401464285715,434.45992142857136,336.0235178571431,81.43542857142862
102,1041.8,29.6,217.8,870.4,9.3,31.8,13.0,1.6,126.5,1741.2378571428574,1.2725778684840705,50.21357142857145,24.10303571428571,269.04607142857145,111.02928571428575,53.28285714285716,12.789285714285713
109,2196.7,94.6,297.6,1891.6,42.3,112.5,42.9,7.0,138.4,5336.723,3.964859339408502,264.0937142857144,112.50744285714283,567.328785714286,348.16533928571414,172.64110714285718,51.422214285714304
111,1084.6,37.0,184.5,1380.8,14.0,57.8,15.9,2.7,54.1,3372.792392857146,5.305102653981345,169.6548214285715,83.04424999999999,307.2075000000001,143.81439285714285,154.26725000000013,27.92589285714286
112,2189.9,128.3,218.9,1983.7,19.9,92.3,68.0,4.5,88.6,3858.692987500001,2.976552638210761,154.9353246428571,64.84429892857143,482.90330642857145,245.85549464285708,133.16545999999997,39.61788535714286
126,1454.8,67.0,168.1,1387.5,14.8,61.8,32.6,3.1,56.7,1984.3828928571427,1.9684005286548434,93.96646428571428,37.16767857142855,229.00692857142863,128.9217321428571,55.664249999999996,20.775803571428575
127,1705.3,89.0,187.6,588.2,41.9,80.3,38.3,7.9,82.2,494.15907857142855,0.3363113273337909,13.845421428571429,1.6208285714285713,83.20571428571428,35.45278571428572,9.181857142857142,9.06325
135,2032.5,38.3,418.3,352.7,70.5,89.2,10.0,0.1,106.1,2000.664821428571,1.1632174636261403,37.08810714285715,7.635282142857148,366.6766071428572,149.96752857142846,50.04135714285713,25.18146428571432
153,1735.5,87.9,174.6,1853.4,12.9,93.3,43.6,5.8,66.7,1050.7500357142858,0.7555455540155875,63.2450357142857,30.746321428571424,89.40664285714286,19.576232142857144,30.979535714285714,6.075607142857144
154,1904.1,94.8,233.1,2405.7,19.3,106.5,38.5,9.9,83.2,2025.8627671428567,3.2755443898636476,80.25819571428572,30.954720000000002,263.9056185714286,187.40025571428572,61.97913285714286,12.453184285714284
173,1257.9,48.7,211.6,1258.2,30.2,58.0,14.5,2.6,79.4,1556.9957142857136,1.632818263992705,35.812871428571405,9.427749999999998,220.05862857142873,112.88196071428568,88.61133928571428,28.879249999999985
174,2213.1,91.6,325.7,2974.2,28.6,105.2,43.4,6.3,108.2,403.82726428571425,0.19110947238780068,17.15805,8.068103571428574,52.18239285714286,12.666535714285713,10.168810714285714,4.314964285714285
175,2921.2,120.5,396.7,3066.2,36.1,149.5,55.8,5.8,106.8,1745.8880771428562,1.8775468848292662,90.83724857142856,46.6454857142857,152.71567142857148,69.23453571428573,79.37253857142859,15.582720714285712
176,1511.9,73.1,229.0,2084.9,41.0,95.9,27.1,4.1,87.4,2566.0536071428564,2.556146131205415,107.18717857142856,46.181535714285694,294.52564285714277,124.22807142857141,105.81660714285707,35.59503571428572
182,1973.4,76.4,291.0,1898.1,25.7,70.5,34.3,3.1,115.4,1759.3471428571434,1.5736851209703613,30.392785714285715,11.375410714285712,307.00812499999995,57.71594642857142,64.44489285714285,28.940571428571435
183,2917.8,134.9,352.6,5338.4,31.9,186.2,63.8,12.6,128.7,2485.698135714286,2.8247591405019326,94.82829,37.95036142857143,301.74255999999997,127.31488142857143,106.31832142857145,39.292565714285715
185,880.0,28.3,147.5,503.8,22.2,37.5,8.9,2.8,80.0,1883.8969142857134,1.7431211895604488,47.11165714285713,17.264250000000022,252.59371428571444,78.4410714285714,112.37928571428571,33.628999999999984
186,1529.9,65.0,202.0,1357.7,21.4,85.6,28.7,8.3,79.4,645.4379285714285,0.35626711194458827,22.923499999999997,10.982450000000002,90.22935714285714,46.78814285714285,19.552250000000004,12.44371428571428
188,1326.9,43.3,196.4,1682.3,16.3,59.3,19.0,4.0,44.7,1395.6749999999997,0.9680932645000337,49.11071428571429,23.24260714285714,179.39246428571428,36.846875000000004,59.02717857142857,17.028714285714283
191,1700.3,72.2,207.3,2120.6,24.0,99.6,33.3,6.4,72.7,845.1716357142858,1.1303066002372681,56.111664285714276,31.593857142857143,45.50124999999999,39.56075,39.540414285714284,3.431785714285714
195,1829.9,87.6,217.9,2436.0,14.4,82.0,41.7,5.7,87.3,1922.8770714285715,2.0750753460719014,93.60549999999999,34.08785714285714,200.03728571428567,102.59875000000001,70.06960714285715,28.273392857142856
196,2495.6,121.4,316.7,2106.2,29.0,82.6,59.7,4.0,152.2,1184.3565214285716,2.3960441496828486,34.86267571428571,11.495543571428572,151.69091,90.13358857142855,65.9572,22.07724071428572
214,1038.8,33.4,87.6,654.8,10.5,58.1,15.8,3.7,23.5,1345.8944928571432,2.0982758348814894,38.23917857142858,16.19034285714285,170.53452142857145,49.678521428571415,79.90095000000001,34.331689285714276
215,967.1,60.0,81.6,1395.5,17.4,52.9,25.9,4.1,15.7,2050.5758714285716,2.7662691332410603,91.76603142857141,41.829270714285705,197.46584714285706,96.41474000000001,108.70454999999997,20.332816428571423
220,1794.5,66.1,250.6,2199.2,29.6,91.6,31.2,4.4,106.9,749.5135,0.7420656603739504,41.46421428571427,22.466060714285714,58.58942857142857,36.36867857142856,35.494464285714294,8.778892857142859
222,1110.7,74.4,105.3,1825.3,7.4,77.6,35.3,10.3,31.0,759.3503571428571,0.7949983127019686,38.223214285714285,20.727857142857143,77.11535714285715,43.23460714285715,26.719999999999995,3.6087500000000006
223,3170.5,122.8,431.4,4407.9,40.5,145.2,51.1,8.2,91.8,1219.9221785714287,1.4939977586769182,51.95917857142857,28.57014285714286,130.60821428571427,72.35814285714284,57.464178571428576,13.917142857142858
224,1785.5,72.2,223.1,1690.2,28.1,107.7,32.7,5.8,105.4,861.3628571428571,0.5519866987926478,42.778571428571425,27.764821428571423,87.76678571428569,33.33392857142857,31.322142857142847,12.122499999999997
228,1363.9,62.7,177.0,985.0,13.2,66.2,31.7,5.2,54.3,1290.384205,0.8553755105830775,46.03363357142858,21.693228571428573,162.68619642857146,29.933296428571424,56.33417928571429,9.87828642857143
229,1505.2,39.4,266.2,1046.7,30.7,53.9,13.1,0.2,56.8,1782.1002857142853,1.9177813604055836,64.24114285714288,22.107214285714285,254.9174642857143,84.05862500000003,46.065035714285706,34.67139285714285
242,1055.3,60.0,171.7,1436.4,31.9,68.5,23.1,2.0,38.3,368.9093214285714,0.7363275478312817,11.174750000000001,2.1264999999999996,55.933571428571426,19.234107142857145,11.150571428571427,6.2423214285714295
243,1525.6,68.2,165.4,1421.0,32.3,95.0,26.0,9.2,57.3,1869.194035714286,2.137019168881879,91.54689285714286,32.04385714285715,153.0638928571429,31.794785714285712,108.25410714285712,25.818571428571428
244,689.5,26.7,106.3,726.9,12.7,38.9,10.1,4.1,31.1,751.5118928571428,0.2536804949803825,20.763464285714285,8.243392857142858,117.81825,27.659607142857144,23.34192857142857,8.787749999999999
253,1599.8,58.8,235.6,953.4,12.6,71.5,30.0,2.5,92.3,361.9310357142857,0.15353255338336616,11.53317857142857,4.7685,55.86978571428572,22.09360714285714,8.663321428571429,4.679214285714287
256,1749.4,102.7,204.4,2861.2,16.8,97.9,44.5,6.9,74.7,911.905067857143,0.8512328778548105,40.25869642857143,19.628496428571427,106.2271892857143,31.936403571428578,31.16701071428571,9.978951785714285
259,1689.5,88.7,251.3,1542.2,39.9,91.2,28.7,5.8,85.7,413.792865,0.45321943406839676,9.777830714285715,3.2659378571428577,63.06508071428572,15.679187857142859,18.38301642857143,6.418790357142856
260,3028.1,151.7,389.7,2644.0,33.9,126.7,60.4,8.9,125.3,330.6657142857143,0.24646016452260971,12.912285714285714,4.975353571428571,43.29721428571428,21.964660714285714,10.31657142857143,3.7285357142857145
262,1173.2,48.7,170.9,1307.0,16.8,55.7,23.7,4.0,68.3,1283.8905357142855,1.2676722758800198,55.571478571428564,21.425035714285716,155.21870000000004,84.35710357142857,40.71810714285714,30.56871428571429
268,989.2,40.0,100.7,2086.0,14.0,69.9,14.7,6.4,38.0,3734.0981428571436,6.753984736268167,161.48628571428569,65.8274642857143,414.17675,133.0784285714286,156.00364285714278,37.28321428571427
269,1506.9,49.2,241.5,1101.2,28.3,56.1,19.5,2.3,118.7,212.59728571428568,0.1479445557389257,6.788142857142858,3.5049285714285716,26.607857142857142,8.418357142857143,11.268142857142859,6.056821428571429
274,2881.7,154.4,333.4,3515.2,32.8,125.2,68.6,8.0,105.4,2522.003085714285,3.4624906554586956,143.01505714285713,66.74001785714286,230.48521428571433,128.8832857142857,78.23167857142857,37.911767857142856
279,1527.9,71.6,201.1,1789.3,13.9,61.0,34.6,2.7,84.2,435.8532142857143,0.13424285714285716,14.0275,3.786964285714286,69.66803571428572,66.86446428571429,7.733392857142857,1.9112500000000001
282,954.7,41.2,162.0,880.4,18.2,39.4,18.3,1.3,43.3,3994.936746071431,5.15493822977332,190.99161607142852,80.39174285714289,428.3375442857142,251.01592964285715,140.6655060714286,30.346322142857144
298,1273.6,53.9,188.5,2026.2,19.7,73.6,23.0,5.6,77.1,425.99957142857147,0.561233982037922,13.912185714285712,7.462964285714286,54.18210000000003,32.83611428571429,21.015375000000006,10.121535714285717
304,1664.8,41.8,334.6,1802.8,17.0,69.4,18.6,2.8,177.5,1093.6237857142855,1.1122989162598391,12.111071428571426,6.004642857142857,226.8682142857143,195.45142857142858,19.287821428571426,8.241249999999999
309,1484.8,75.2,260.7,1105.3,66.8,74.2,15.8,0.3,74.2,276.3894857142857,0.11210754180821429,13.686942857142858,2.3116071428571425,26.55564285714286,17.989535714285715,11.746107142857143,6.928785714285715
318,1671.4,75.4,213.4,1818.8,17.7,73.7,37.4,3.7,82.9,5804.58010357143,5.252800225141972,249.24214357142864,108.80385071428564,736.16526,197.98461714285708,154.1849428571429,48.037254999999995
323,2823.4,112.3,447.4,2723.4,47.1,100.8,52.6,5.6,210.1,1182.5848928571431,1.7192535140306422,45.22332142857142,13.25685714285714,145.92035714285714,53.14107142857144,47.97339285714286,15.10446428571429
328,3570.1,168.3,503.1,4409.8,49.0,164.6,73.8,7.9,212.2,2743.105482142859,4.094006896564374,110.27995642857145,46.82637785714286,330.6792864285714,102.87053642857143,106.96718214285708,25.915625357142854
329,2946.4,130.3,374.4,4029.5,38.6,161.0,65.0,10.4,129.3,1928.3121339285713,1.7682207662463214,100.52592964285715,57.72276321428571,176.2042367857143,118.88024071428573,79.690455,19.464481785714288
333,1666.4,68.7,240.7,1560.8,31.3,68.6,31.1,3.8,92.0,495.7282142857143,0.18738377243264343,24.582785714285713,9.263214285714284,45.91814285714285,35.839446428571435,22.702642857142855,7.584857142857143
336,1663.7,56.6,202.1,1728.5,17.2,103.5,26.0,8.8,64.5,777.0328214285713,0.837439375540308,27.54942857142857,12.961428571428574,106.24466964285713,54.16902678571428,26.027321428571423,11.258553571428568
338,1986.1,84.0,349.8,1919.8,45.3,82.0,29.2,3.1,106.6,723.3090432142856,0.9600008993620285,27.633554642857142,11.322586785714284,82.30032214285714,45.08684678571428,36.35144071428572,13.750538928571427
344,2233.4,116.5,237.3,2475.2,16.2,104.4,53.6,7.2,79.9,1982.047796428571,3.0372601156650445,111.31076785714285,49.213546428571455,176.89225357142863,99.69225357142861,68.17046785714287,20.110966071428575
345,1589.9,78.4,182.4,1351.7,18.6,71.0,41.0,6.3,54.8,1769.561564285714,0.9033139251439194,95.43686428571426,54.11101785714286,164.8598750000001,38.87932142857144,62.79757142857147,18.18689285714286
352,1323.2,58.5,192.6,1399.7,13.8,56.5,27.5,2.3,67.7,1006.6693571428574,1.33450192059516,71.4687857142857,35.65157142857142,57.50089285714285,33.581178571428566,33.36167857142857,9.82642857142857
357,2107.5,69.3,369.3,3516.2,49.1,124.9,29.0,5.9,167.5,2725.78166,2.4986746386244816,84.91037428571431,30.741703571428584,358.3275214285717,249.95691785714305,132.06955142857137,53.168951428571454
365,1443.9,66.0,195.2,1970.6,21.8,55.6,29.5,2.8,73.1,2507.892035714285,2.8058549495999605,111.7618928571428,51.79988214285715,294.0758928571428,135.15625,81.43285714285722,30.90214285714285
366,2156.6,120.9,223.9,3331.4,21.7,105.3,55.2,7.1,80.2,425.13546428571436,0.4744994376208399,20.349321428571425,7.4817857142857145,44.690535714285716,17.04892857142857,15.807357142857143,7.136607142857144
369,1740.3,75.1,228.9,1937.1,16.8,89.5,34.0,4.2,84.8,2277.2010892857143,2.8484247690404985,104.56551785714285,49.75591071428574,243.73301785714287,97.96744642857142,90.29483928571429,16.73072321428571
375,2976.8,124.8,403.8,2968.9,47.7,132.6,61.9,5.8,171.1,4843.365392857143,4.084311016379452,187.57453571428593,91.25596428571427,623.4636428571432,347.95182142857135,165.33500000000006,62.38766071428571
377,1308.3,61.5,160.8,1469.8,10.9,61.0,27.1,2.8,42.8,1547.8281285714286,1.0036169086918925,59.57630000000001,29.891964285714277,176.08457142857145,12.862321428571425,76.82578571428571,14.262892857142857
378,1847.0,82.2,349.1,2102.7,38.8,79.9,29.8,4.5,75.1,670.6871428571428,0.9312851518407742,20.13514285714286,6.609825000000001,95.79500000000003,25.63973214285715,26.572714285714284,10.451035714285712
382,2391.4,101.6,357.0,3382.4,43.8,136.0,40.0,5.1,99.1,949.1142428571427,1.2996363845323453,41.973134285714295,17.755987857142856,105.25772999999997,41.60080142857144,37.58127857142857,10.984043571428572
385,1079.8,35.7,168.3,931.8,23.2,52.3,16.9,3.1,67.6,518.8962142857143,1.1109541507162828,10.581500000000002,3.459392857142857,62.39107142857143,30.339285714285715,43.52460714285714,11.0975
390,2673.2,98.4,351.4,2655.2,33.4,140.3,43.0,16.5,80.9,1334.7571785714288,1.230196607627003,55.724321428571436,23.930696428571423,144.99217857142858,51.218696428571434,63.31739285714285,18.083803571428568
394,1219.4,52.4,173.6,1620.7,16.6,54.6,22.9,3.0,61.0,1209.1858171428573,2.0065928481651194,37.821251428571436,12.937144285714291,169.65010857142858,72.12943,47.548530000000014,23.662500714285716
395,1399.4,59.4,198.3,1484.6,19.9,69.1,28.2,2.5,66.2,2440.911814285714,3.4586790267313012,126.84804285714286,66.93389285714287,234.0217857142857,169.67328571428575,90.79807142857145,17.795821428571426
397,1958.6,106.2,294.0,2359.2,55.5,97.4,36.3,3.3,89.1,360.2386785714287,0.33715599271147906,9.364178571428571,3.313225,57.74917857142857,14.917589285714286,11.241089285714285,5.487785714285714
403,1589.9,72.4,270.8,1963.0,22.4,76.8,31.4,6.2,49.6,2026.3352071428574,2.3092927318993155,92.90200714285712,39.19964285714285,196.32928571428573,42.42189285714286,101.22500000000002,25.07503571428571
405,2339.3,110.1,307.1,1894.8,32.6,107.0,50.8,7.8,162.6,1226.2718214285717,2.3881921400324218,58.50996428571428,23.829499999999996,132.18857142857144,72.32939285714286,42.731964285714284,10.2925
412,1350.2,61.4,176.1,1383.4,14.1,50.7,28.8,5.1,59.0,1846.5817142857138,2.4873310297050653,87.89900000000002,45.31074999999999,211.63428571428568,103.64178571428575,52.23839285714286,20.868214285714284
415,4036.1,170.9,629.0,4875.3,53.4,140.7,70.8,9.9,310.0,3000.6032,4.163493046013367,107.19933428571424,45.491895,406.52659071428565,132.6958228571429,102.42570714285718,37.672107857142855
